<?xml version="1.0" encoding="UTF-8"?>
<graphml xmlns="http://graphml.graphdrawing.org/xmlns"  
    xmlns:xsi="http://www.w3.org/2001/XMLSchema-instance"
    xsi:schemaLocation="http://graphml.graphdrawing.org/xmlns
     http://graphml.graphdrawing.org/xmlns/1.0/graphml.xsd">
  <key id="d0" for="mode" attr.name="info" attr.type="string">
    <default>nothing</default>
  </key>
  <graph id="G" edgedefault="undirected" root="m0">
    
    <node id="m0">
      <data key="d0">root</data>
    </node>
    
    <node id="m1"/>
    <node id="m2"/>
    <node id="m3"/>
    <node id="m4"/>
    <node id="m5"/>
    <node id="m6"/>
    <node id="m7"/>
    <node id="m8"/>
    <node id="m9"/>
    <node id="m10"/>
    
    <node id="m11"/>
    <node id="m12"/>
    <node id="m13"/>
    <node id="m14"/>
    <node id="m15"/>
    <node id="m16"/>
    <node id="m17"/>
    <node id="m18"/>
    <node id="m19"/>
    <node id="m20"/>
    
    <node id="m21"/>
    <node id="m22"/>
    <node id="m23"/>
    <node id="m24"/>
    <node id="m25"/>
    <node id="m26"/>
    <node id="m27"/>
    <node id="m28"/>
    <node id="m29"/>
    <node id="m30"/>
    
    <node id="m31"/>
    <node id="m32"/>
    <node id="m33"/>
    <node id="m34"/>
    <node id="m35"/>
    <node id="m36"/>
    <node id="m37"/>
    <node id="m38"/>
    <node id="m39"/>
    <node id="m40"/>

    <node id="m41"/>
    <node id="m42"/>
    <node id="m43"/>
    <node id="m44"/>
    <node id="m45"/>
    <node id="m46"/>
    <node id="m47"/>
    <node id="m48"/>
    <node id="m49"/>
    <node id="m50"/>

    <node id="m51"/>
    <node id="m52"/>
    <node id="m53"/>
    <node id="m54"/>
    <node id="m55"/>
    <node id="m56"/>
    <node id="m57"/>
    <node id="m58"/>
    <node id="m59"/>
    <node id="m60"/>

    <node id="m61"/>
    <node id="m62"/>
    <node id="m63"/>
    <node id="m64"/>
    <node id="m65"/>
    <node id="m66"/>
    <node id="m67"/>
    <node id="m68"/>
    <node id="m69"/>
    <node id="m70"/>

    <node id="m71"/>
    <node id="m72"/>
    <node id="m73"/>
    <node id="m74"/>
    <node id="m75"/>
    <node id="m76"/>
    <node id="m77"/>
    <node id="m78"/>
    <node id="m79"/>
    <node id="m80"/>

    <node id="m81"/>
    <node id="m82"/>
    <node id="m83"/>
    <node id="m84"/>
    <node id="m85"/>
    <node id="m86"/>
    <node id="m87"/>
    <node id="m88"/>
    <node id="m89"/>
    <node id="m90"/>
    
    <node id="m91"/>
    <node id="m92"/>
    <node id="m93"/>
    <node id="m94"/>
    <node id="m95"/>
    <node id="m96"/>
    <node id="m97"/>
    <node id="m98"/>
    <node id="m99"/>
    <node id="m100"/>
    
    <edge source="m0" target="m1"/>
    <edge source="m0" target="m2"/>
    <edge source="m0" target="m3"/>
    <edge source="m0" target="m4"/>
    <edge source="m0" target="m5"/>
    <edge source="m0" target="m6"/>
    <edge source="m0" target="m7"/>
    <edge source="m0" target="m8"/>
    <edge source="m0" target="m9"/>
    <edge source="m0" target="m10"/>

    <edge source="m0" target="m11"/>
    <edge source="m0" target="m12"/>
    <edge source="m0" target="m13"/>
    <edge source="m0" target="m14"/>
    <edge source="m0" target="m15"/>
    <edge source="m0" target="m16"/>
    <edge source="m0" target="m17"/>
    <edge source="m0" target="m18"/>
    <edge source="m0" target="m19"/>
    <edge source="m0" target="m20"/>

    <edge source="m0" target="m21"/>
    <edge source="m0" target="m22"/>
    <edge source="m0" target="m23"/>
    <edge source="m0" target="m24"/>
    <edge source="m0" target="m25"/>
    <edge source="m0" target="m26"/>
    <edge source="m0" target="m27"/>
    <edge source="m0" target="m28"/>
    <edge source="m0" target="m29"/>
    <edge source="m0" target="m30"/>

    <edge source="m0" target="m31"/>
    <edge source="m0" target="m32"/>
    <edge source="m0" target="m33"/>
    <edge source="m0" target="m34"/>
    <edge source="m0" target="m35"/>
    <edge source="m0" target="m36"/>
    <edge source="m0" target="m37"/>
    <edge source="m0" target="m38"/>
    <edge source="m0" target="m39"/>
    <edge source="m0" target="m40"/>

    <edge source="m0" target="m41"/>
    <edge source="m0" target="m42"/>
    <edge source="m0" target="m43"/>
    <edge source="m0" target="m44"/>
    <edge source="m0" target="m45"/>
    <edge source="m0" target="m46"/>
    <edge source="m0" target="m47"/>
    <edge source="m0" target="m48"/>
    <edge source="m0" target="m49"/>
    <edge source="m0" target="m50"/>

    <edge source="m0" target="m51"/>
    <edge source="m0" target="m52"/>
    <edge source="m0" target="m53"/>
    <edge source="m0" target="m54"/>
    <edge source="m0" target="m55"/>
    <edge source="m0" target="m56"/>
    <edge source="m0" target="m57"/>
    <edge source="m0" target="m58"/>
    <edge source="m0" target="m59"/>
    <edge source="m0" target="m60"/>

    <edge source="m0" target="m61"/>
    <edge source="m0" target="m62"/>
    <edge source="m0" target="m63"/>
    <edge source="m0" target="m64"/>
    <edge source="m0" target="m65"/>
    <edge source="m0" target="m66"/>
    <edge source="m0" target="m67"/>
    <edge source="m0" target="m68"/>
    <edge source="m0" target="m69"/>
    <edge source="m0" target="m70"/>

    <edge source="m0" target="m71"/>
    <edge source="m0" target="m72"/>
    <edge source="m0" target="m73"/>
    <edge source="m0" target="m74"/>
    <edge source="m0" target="m75"/>
    <edge source="m0" target="m76"/>
    <edge source="m0" target="m77"/>
    <edge source="m0" target="m78"/>
    <edge source="m0" target="m79"/>
    <edge source="m0" target="m80"/>

    <edge source="m0" target="m81"/>
    <edge source="m0" target="m82"/>
    <edge source="m0" target="m83"/>
    <edge source="m0" target="m84"/>
    <edge source="m0" target="m85"/>
    <edge source="m0" target="m86"/>
    <edge source="m0" target="m87"/>
    <edge source="m0" target="m88"/>
    <edge source="m0" target="m89"/>
    <edge source="m0" target="m90"/>

    <edge source="m0" target="m91"/>
    <edge source="m0" target="m92"/>
    <edge source="m0" target="m93"/>
    <edge source="m0" target="m94"/>
    <edge source="m0" target="m95"/>
    <edge source="m0" target="m96"/>
    <edge source="m0" target="m97"/>
    <edge source="m0" target="m98"/>
    <edge source="m0" target="m99"/>
    <edge source="m0" target="m100"/>

  </graph>
</graphml>