<?xml version="1.0" encoding="UTF-8"?>
<graphml xmlns="http://graphml.graphdrawing.org/xmlns"  
    xmlns:xsi="http://www.w3.org/2001/XMLSchema-instance"
    xsi:schemaLocation="http://graphml.graphdrawing.org/xmlns
     http://graphml.graphdrawing.org/xmlns/1.0/graphml.xsd">
  <key id="d0" for="node" attr.name="info" attr.type="string">
    <default>nothing</default>
  </key>
  <graph id="G" edgedefault="undirected" root="n0">
    <node id="n0">
      <data key="d0">root</data>
    </node>
    <node id="n1"/>
    <node id="n2"/>
    <node id="n3"/>
    <node id="n4"/>
    <node id="n5"/>
    <node id="n6"/>
    <node id="n7"/>
    <node id="n8"/>
    <node id="n9"/>
    <node id="n10"/>
    <edge source="n0" target="n1"/>
    <edge source="n0" target="n2"/>
    <edge source="n0" target="n3"/>
    <edge source="n0" target="n4"/>
    <edge source="n0" target="n5"/>
    <edge source="n0" target="n6"/>
    <edge source="n0" target="n7"/>
    <edge source="n0" target="n8"/>
    <edge source="n0" target="n9"/>
    <edge source="n0" target="n10"/>
  </graph>
</graphml>